<svg version="1.1"
	 id="Layer_1" xmlns:v="http://schemas.microsoft.com/visio/2003/SVGExtensions/" xmlns:ev="http://www.w3.org/2001/xml-events"
	 xmlns="http://www.w3.org/2000/svg" xmlns:xlink="http://www.w3.org/1999/xlink" x="0px" y="0px" width="100.84px"
	 height="34.08px" viewBox="18.236 18.245 100.84 34.08" enable-background="new 18.236 18.245 100.84 34.08" xml:space="preserve">
		<linearGradient id="anim" x1="0%" y1="100%">
          <stop offset="0%" stop-color="lightblue" stop-opacity=".8">
            <animate attributeName="stop-color" values="#067A02;#14970F;#22AE1E;#2FBE2A;#3ED239;#4FE34A;#69F464;#7FFB7B;#A4FAA1" dur="2s" repeatCount="indefinite" />
          </stop>
          <stop offset="100%" stop-color="lightblue" stop-opacity=".8">
            <animate attributeName="stop-color" values="#A4FAA1;#7FFB7B;#69F464;#4FE34A;#3ED239;#2FBE2A;#22AE1E;#14970F;#067A02" dur="2s" repeatCount="indefinite" />
            <animate attributeName="offset" values=".95;.80;.60;.40;.20;0;.20;.40;.60;.80;.95" dur="2s" repeatCount="indefinite" />    
          </stop>
        </linearGradient>
        
		<g transform="translate(22.9416,-18.24)">
			<g>
				<path fill="#646464"  d="M95.135,44.535c0.55,0,1,0.45,1,1v24.03c0,0.55-0.45,1-1,1h-98.84c-0.55,0-1-0.45-1-1v-2.771
					c0-0.55,0.45-1,1-1h2.71c0.55,0,1-0.45,1-1v-27.31c0-0.55,0.45-1,1-1h20.43c0.55,0,1,0.45,1,1v6.05c0,0.55,0.45,1,1,1h19.26
					c0.55,0,1-0.45,1-1v-6.05c0-0.55,0.45-1,1-1h20.44c0.55,0,1,0.45,1,1v6.05c0,0.55,0.45,1,1,1H95.135z" >
					
        </path>
			</g>
		</g>
</svg>
